…
alpha <- 0.05
# Range of potential effect sizes
beta <- seq(0.1, 0.5, by = 0.001)
# Create power table
power.table <- tibble(beta = beta, power = NA)
power.table$power <- as.numeric(power.table$power)
for (i in 1:length(beta)) {
    power.table[i, "beta"] <- beta[i]
    power.table[i, "power"] <- power.SLR(n = n, lambda.a = beta[i], sigma.x = sigma.x, 
        sigma.y = sigma.y, alpha = alpha, verbose = FALSE)$power
}
power.table
```

    ## # A tibble: 401 x 2
    ##     beta power
    ##    <dbl> <dbl>
    ##  1 0.1   0.112
    ##  2 0.101 0.114
    ##  3 0.102 0.115
    ##  4 0.103 0.116
    ##  5 0.104 0.118
    ##  6 0.105 0.119
    ##  7 0.106 0.120
    ##  8 0.107 0.122
    ##  9 0.108 0.123
    ## 10 0.109 0.125
    ## # … with 391 more rows
…
